…
``` r
duplicated_entries <- lu_form_df |> 
  
  # exclude the example sentences column
  select(!matches("^x_")) |> 
  
  # get distinct observation
  distinct() |> 
  
  # count the number of entry_id, showing there are duplicated entries, still.
  count(entry_id, sort = TRUE)

duplicated_entries
#> # A tibble: 1,498 × 2
#>    entry_id                                 n
#>    <chr>                                <int>
#>  1 08783f5e-4959-4e0d-9116-66fe4521a642     3
#>  2 1f424931-2ea2-451a-a1c2-4df563d5c02f     3
#>  3 4770df89-2cbf-461b-85e4-622c5672c9a4     3
#>  4 559176ad-5709-4954-a2fe-43bae2266860     3
#>  5 bc8d7273-8c4e-4594-9f4c-61e12c5baa14     3
#>  6 d3cb53e0-5aef-4123-9135-4e9a95c78e70     3
#>  7 d95e6c32-37a6-4fb8-831d-ab766d92ebcf     3
#>  8 028ed846-636e-44c0-ac94-bbc114b0db90     2
#>  9 05560db9-b94c-46d4-827b-063875aaab42     2
#> 10 0f85ae05-e368-4f71-b4e4-cd6d206d9f22     2
#> # ℹ 1,488 more rows
```

The following code shows preview of entries with multiple senses.

``` r
lu_form_df |> 
  
  # From the `duplicated_entries` tibble above,
  # filter only `"entry_id"` column whose occurrences are more than once,
  # suggesting that such entry has more than one sense/gloss.
  filter(entry_id %in% pull(filter(duplicated_entries, n > 1),
                            entry_id)) |> 
  
  # Print the relevant columns
  select(entry_id, form, sense_order, sense_gloss_en, sense_gloss_idn)
#> # A tibble: 121 × 5
#>    entry_id                     form  sense_order sense_gloss_en sense_gloss_idn
#>    <chr>                        <chr> <chr>       <chr>          <chr>          
#>  1 8cf2917d-78b3-449b-a220-d35… 'ueh  0           "sleep "       tidur          
#>  2 8cf2917d-78b3-449b-a220-d35… 'ueh  1           "lie"          berbaring      
#>  3 3b3467d3-d573-43f6-b697-2bc… -de   0           "3SG.POSS"     <NA>           
#>  4 3b3467d3-d573-43f6-b697-2bc… -de   1           "DEF"          <NA>           
#>  5 8678edc2-cb75-4601-b038-c22… a-    0           "if"           kalau          
#>  6 8678edc2-cb75-4601-b038-c22… a-    1           "when"         kalau          
#>  7 37a9f7dd-1759-4db6-aef8-f2b… abu̇h  0           "already"      sudah          
#>  8 37a9f7dd-1759-4db6-aef8-f2b… abu̇h  1           "done"         selesai        
#>  9 3729b50e-750d-4c31-9b19-67e… ahao  0           "custom"       adat           
#> 10 3729b50e-750d-4c31-9b19-67e… ahao  1           "forbid"       <NA>           
#> # ℹ 111 more rows
```
…
